[
    {
        "category": "Finance",
        "date": "02/10/2019",
        "description": "Money Transfer",
        "amount": "£220.00"
    },
    {
        "category": "Grocery",
        "date": "03/10/2019",
        "description": "CO-OP Leyton",
        "amount": "£115.50"
    },
    {
        "category": "Transport",
        "date": "05/10/2019",
        "description": "OYSTER - Stratford",
        "amount": "£70.00"
    },
    {
        "category": "Entertainment",
        "date": "08/10/2019",
        "description": "London Eye Attractions",
        "amount": "£173.00"
    },
    {
        "category": "Food",
        "date": "10/10/2019",
        "description": "GBK - Restuarant",
        "amount": "£120.00"
    }
]